"RecID","Fname+MI","Lname+GenSfx","Nbr","Address 1","Address 2","City","State","Zip","HomePhone","FNAME_O","MI_O","LNAME_O","GENSFX_O","ADDRESS_O","CITY_O","STATE_O","ZIP_O","HOMEPHONE_O","PO_BOX_O","PO_CITY_O","PO_STATE_O","PO_ZIP_O","TruthID"
"B000321","RALPH","BAPTISTE","400","VALENCIA DRIVE","APARTMENT 1331","maumelle","ark","72113","(501)745-5175","Ralph",,"Baptiste",,"400 Valencia Dr, Apt 1331","Maumelle","AR","72113","5017455175",,,,,31
"B000323","A","bryant","11120","college ave",,"montclair","ca","91763","909.731.4838","A",,"Bryant",,"11120 College Ave","Montclair","CA","91763","9097314838",,,,,29
"B000482","graciela A","Hoang","1210","VENICE BLVD","Apartmment 408","Venice","ca","90291","(310)565-2733","Graciela","A","Hoang",,"1210 Venice Blvd (Apartmment 408)","Venice","CA","90291","3105652733",,,,,43
"B051001","candace","QUILES","740515","BOX",,"orange city","fl","32774","386-445-6002","Candace",,"Quiles",,"PO Box (740515)","Orange City","FL","32774","3864456002",,,,,41
"B000782","daniel M","WAR","6825","HENDGRY DR",,"Lake Worth","fl","33463e","561-362-3722","Daniel","M","War",,"6825 Hendgry Dr","Lake Worth","FL","33463","5613623722",,,,,23
"B000817","CECILIA C","baptiste","955","dtterel rd","APT 230P6","DELRAY BEACH","FLA.","33444","561-672-1323","Cecilia","C","Baptiste",,"955 Dtterel Rd, Apt 230p6","Delray Beach","FL","33444","5616721323",,,,,30
"B000891","MARK A","Gonzales","1900","POST RD","APARTMENT 195","mkelbourne","florida","32935","321.255-7178","Mark","A","Gonzales",,"1900 Post Rd, Apt 195","Mkelbourne","FL","32935","3212557178",,,,,19
"B001262","salvador J","Capps","1716","broadmoor str",,"livermre","ca","94551","(925)483-3333","Salvador","J","Capps",,"1716 Broadmoor St","Livermre","CA","94551","9254833333",,,,,34
"B001807","DEE P","Blankenship","7837","Bridgestoneter",,"JACSONVILLE","FLORIDA","32216","904-114-2701","Dee","P","Blankenship",,"7837 Bridgestoneter","Jacsonville","FL","32216","9041142701",,,,,25
"B052064","Francisco L","urbanski","1894","HARTFORD ST",,"SALINASC","CALI","93906","831-567.4004","Francisco","L","Urbanski",,"1894 Hartford St","Salinasc","CA","93906","8315674004",,,,,42
"B052066","albetr C","foster","5716","Cedar Gln Lane",,"bakersfield","ca","93313","(661)521.2862","Albetr","C","Foster",,"5716 Cedar GLN Lane","Bakersfield","CA","93313","6615212862",,,,,39
"B052142","Danny M","Awr","2747","COUNTY ROAD 425",,"JONESBORO","ARK.","72404","(870)644.8000","Danny","M","Awr",,"2747 County Road 425","Jonesboro","AR","72404","8706448000",,,,,23
"B003554","ralph","BAPTISTE","12614","arrowhead cir",,"LAREDO","TX","78045","956.572.2473","Ralph",,"Baptiste",,"12614 Arrowhead Cir","Laredo","TX","78045","9565722473",,,,,31
"B053277","CANDACE","u","10808","foothill boul","Suite 160-166m","rancho cucamonga","cay","91730","909.522-1807","Candace",,"U",,"10808 Foothill Blvd, Ste 160 (166M)","Rancho Cucamonga","CA","91730","9095221807",,,,,41
"B003889","jesus A","DOWNS","2706","18TH ST W",,"LEHIGH ACRES","FL","33971","239-608-5388","Jesus","A","Downs",,"2706 18th St W","Lehigh Acres","FL","33971","2396085388",,,,,50
"B053910","FRANCISCO L","urbanski","10808","foothill blvd","Siuite 160-166","RANCHO CUCAMONGA","CA","91730","909.522.1807","Francisco","L","Urbanski",,"10808 Foothill Blvd (Siuite 160-166)","Rancho Cucamonga","CA","91730","9095221807",,,,,42
"B054117","Matthew A","BRYANT","136","Creekviewdr",,"VALLEJO","CA","94591","(707)134.6727","Matthew","A","Bryant",,"136 Creekviewdr","Vallejo","CA","94591","7071346727",,,,,29
"B004748","MICHAEL","DANIELS","9426","W 2ND PL",,"MIAMISHORES","FLA.","33150","305.700-6470","Michael",,"Daniels",,"9426 W 2nd Pl","Miamishores","FL","33150","3057006470",,,,,10
"B054528","MARTHA","collins","218","W SILVER SANDS DR",,"san antonio","texas","8216","210.727-0638","Martha",,"Collins",,"218 W Silver Sands Dr","San Antonio","TX","8216","2107270638",,,,,36
"B055205","BELEN","Lewis","7595","POST OFFICE BOX",,"PORT ST LUCICE","FLORIDA","34985","(786)622.4078","Belen",,"Lewis",,"PO BOX 7595","Port Saint Lucice","FL","34985","7866224078",,,,,32
"B005201","CANDACE","Quiles","1475","W 46th St","PT 522","hialeah","fl","33012","305.471.7123","Candace",,"Quiles",,"1475 W 46th St Pt, #522","Hialeah","FL","33012","3054717123",,,,,41
"B005233","Teresita A","ryo","7021","westbury dr",,"MARILLO","TEXAS","79109","(806)261-7751","Teresita","A","Ryo",,"7021 Westbury Dr","Marillo","TX","79109","8062617751",,,,,11
"B055771","Donna D","HOCK","430115","POST OFFICE",,"miami","fl","33243","305.257-3421","Donna","D","Hock",,"PO BOX 430115","Miami","FL","33243","3052573421",,,,,45
"B055930","Clyde M","myers-christian","2943","N COTTONWOOD ST","unit 3","ORANGE","CA","92865","714.726-3554","Clyde","M","Myers-Christian",,"2943 N Cottonwood St, Unit 3","Orange","CA","92865","7147263554",,,,,2
"B005825","B","osorio","580","COUNTY ROAD 3463",,"Kempner","tx","76539","512-488-4703","B",,"Osorio",,"580 County Road 3463","Kempner","TX","76539","5124884703",,,,,30
"B056333",,"Hunter","426","Mooreland St",,"el paso","texas","79907","915.501.2234",,,"Hunter",,"426 Mooreland St","El Paso","TX","79907","9155012234",,,,,17
"B006514","Belen","LEWIS","1577","POMEROY AVE","APT 303","santa clara","ca","9551","408.210.3420","Belen",,"Lewis",,"1577 Pomeroy Ave, Apt 303","Santa Clara","CA","9551","4082103420",,,,,32
"B006626","MARK A","GONZALES","1900","post rd","apartment 19y5","MELBOURNE","FLORIDA","32935","321.255.7178","Mark","A","Gonzales",,"1900 Post Rd, Apt 19y5","Melbourne","FL","32935","3212557178",,,,,19
"B006636","Juan","HOANG","1210","VENICE BLVD","apartment 408","Venice","ca","9021","310.565-2733","Juan",,"Hoang",,"1210 Venice Blvd, Apt 408","Venice","CA","9021","3105652733",,,,,44
"B006652","Clyde M","myers-christian","9247","TOBIAS AVE",,"PANORAMA CITY","CA","91402","818-116-6458","Clyde","M","Myers-Christian",,"9247 Tobias Ave","Panorama City","CA","91402","8181166458",,,,,2
"B057134","MICHAEL","DANIELS","9426","Nw 2nd Pl",,"Miami Shores","fl","33150","(305)700-6470","Michael",,"Daniels",,"9426 NW 2nd Pl","Miami Shores","FL","33150","3057006470",,,,,10
"B057175","Wynneth E","Goodwin","5765","POST OFFICE",,"Titusville","fl","32783","407.888.4630","Wynneth","E","Goodwin",,"PO BOX 5765","Titusville","FL","32783","4078884630",,,,,47
"B057182","melchor","ESPARZA","712","STILLVEW CIR",,"BRANDON","FLORIDA","33510","813.451-5110","Melchor",,"Esparza",,"712 Stillvew Cir","Brandon","FL","33510","8134515110",,,,,24
"B006924","Patircia","TENISON","4338","AGNES AVE",,"LYNWOOD","CA","90262","310-506.8474","Patircia",,"Tenison",,"4338 Agnes Ave","Lynwood","CA","90262","3105068474",,,,,16
"B007400","BIRD C","foster","20672","Southwood Oaks Dr",,"PORTER","TX","77365","281-523.3035","Bird","C","Foster",,"20672 Southwood Oaks Dr","Porter","TX","77365","2815233035",,,,,39
"B007842","Pearletha L","gray","208","BELLINGHAM CT",,"Lincoln","ca","g95648","916.545.1364","Pearletha","L","Gray",,"208 Bellingham Ct","Lincoln","CA","95648","9165451364",,,,,48
"B057958","CANDACE","quiles","1475","w 46th st","apt 522","Hialeah","fl","33012","305-471-7123","Candace",,"Quiles",,"1475 W 46th St, Apt 522","Hialeah","FL","33012","3054717123",,,,,41
"B008327","F L","URBANSKI","31734","waterfall wayg",,"MURRIETA","CALI","92563","909.747-6753","F","L","Urbanski",,"31734 Waterfall Wayg","Murrieta","CA","92563","9097476753",,,,,42
"B008423","patricia","TENISON","330698","APARTADO",,"pacoima","california","1333","(818)342.2605","Patricia",,"Tenison",,"330698 Apartado","Pacoima","CA","1333","8183422605",,,,,16
"B058503","ralph","baptiste","2265","APARTADO",,"CUMATILLA","FL","32784","352-144-4463","Ralph",,"Baptiste",,"2265 Apartado","Cumatilla","FL","32784","3521444463",,,,,31
"B058538","dayle A","Bonsal","3937","GIBRIALTAR AVE","Apartmnt 8","Los Angeles","ca","90008","818.813.0288","Dayle","A","Bonsal",,"3937 Gibrialtar Ave (Apartmnt 8)","Los Angeles","CA","90008","8188130288",,,,,15
"B009028","REEN M","henry","231","W TARRINGTON DR",,"deland","fl","32724","(386)427.6716","Reen","M","Henry",,"231 W Tarrington Dr","Deland","FL","32724","3864276716",,,,,5
"B059238","A","A","2512","DARTMOUTH COURT",,"bedfor","texas","76022","(817)360-4064","A",,"A",,"2512 Dartmouth Ct","Bedfor","TX","76022","8173604064",,,,,43
"B010253","dacey","QUILES","1894","HARTFORD S",,"Salinas","california","93906","831-567.4004","Dacey",,"Quiles",,"1894 Hartford S","Salinas","CA","93906","8315674004",,,,,41
"B059891","CECILIA C","OSORIO","955","dotterel rd","apt 2f306","DELRAY BEACH","F","33444","561-672-1323","Cecilia","C","Osorio",,"955 Dotterel Rd, Apt 2f306","Delray Beach","FL","33444","5616721323",,,,,30
"B059915","C","andreala","1347","BUZON",,"malvern","ar","72104","501-251.2223","C",,"Andreala",,"1347 Buzon","Malvern","AR","72104","5012512223",,,,,20
"B060176","MICHAEL","dainels","9426","NW 2ND PL",,"MIAMI SHORES","FL","3150","305.700.6470","Michael",,"Dainels",,"9426 NW 2nd Pl","Miami Shores","FL","3150","3057006470",,,,,10
"B010648","martha","AMPEREZ","108","e church st",,"Gainesvlle","tx","76240","(940)818.1265","Martha",,"Amperez",,"108 E Church St","Gainesvlle","TX","76240","9408181265",,,,,36
"B010770","r M","HENRY","41","freemont turn",,"PALM COAST","FLORIDA","32137","(386)284.7387","R","M","Henry",,"41 Freemont Turn","Palm Coast","FL","32137","3862847387",,,,,5
"B060373","p","tenison","613","Capitol St","# 613","VALLEJO","CA","94590","707-600-2868","P",,"Tenison",,"613 Capitol St, #613","Vallejo","CA","94590","7076002868",,,,,16
"B011141","donna D","hock","817432","BOX",,"Hollywood","fla.","33081","954.115.2545","Donna","D","Hock",,"PO Box (817432)","Hollywood","FL","33081","9541152545",,,,,45
"B011174","DONALD","HUNTER","613","Capitl Strt","# 613","vallejo","ca","94590","(707)600-2868","Donald",,"Hunter",,"613 Capitl St, #613","Vallejo","CA","94590","7076002868",,,,,17
"B011301","F L","urbanksi","1894","HARTFORD T",,"Salinas","ca","p93906","831-567-4004","F","L","Urbanksi",,"1894 Hartford, T","Salinas","CA","93906","8315674004",,,,,42
"B011467","donald","Hunter","426","MOORLAND ST",,"El Paso","tx","79907","(915)501-2234","Donald",,"Hunter",,"426 Moorland St","El Paso","TX","79907","9155012234",,,,,17
"B011873","khantong A","ramirez","6459","APTDO",,"Fullerton","ca","92834","714-554.1066","Khantong","A","Ramirez",,"6459 Aptdo","Fullerton","CA","92834","7145541066",,,,,14
"B012129","J","B","11120","college ave",,"MONTCLAIR","CA","91763","909-731.4838","J",,"B",,"11120 College Ave","Montclair","CA","91763","9097314838",,,,,28
"B012149","rene M","Henry","2869","el monte way",,"SAN JOSE","CA","5127","(408)280.4225","Rene","M","Henry",,"2869 El Monte Way","San Jose","CA","5127","4082804225",,,,,5
"B062151","ROSALIA E","Targxowski","7308","De Soto Avn","apartments 18","canoga park","cali","91303","(818)651-2130","Rosalia","E","Targxowski",,"7308 de Soto Ave (Apartments 18)","Canoga Park","CA","91303","8186512130",,,,,18
"B062849","LUCIA R","wilson","6009","Madiswon County Rd 8500",,"HUNTSVILE","AR","72740","479-801-1124","Lucia","R","Wilson",,"6009 Madiswon County Road, #8500","Huntsvile","AR","72740","4798011124",,,,,38
"B064343","DAYLE A","BONSAL","3937","Gibraltar Avn","apt 8","Los Angeles","california","90008","(818)813.0288","Dayle","A","Bonsal",,"3937 Gibraltar Ave, Apt 8","Los Angeles","CA","90008","8188130288",,,,,15
"B013627","adniel M","WAR","201","GLILEO LN",,"perris","ca","92571","(909)672.8186","Adniel","M","War",,"201 Glileo Ln","Perris","CA","92571","9096728186",,,,,23
"B013709","francisco L","Urbanski","1894","HARTFORD ST",,"SALINAS","CALIFORNIA","93906","831-567-4004","Francisco","L","Urbanski",,"1894 Hartford St","Salinas","CA","93906","8315674004",,,,,42
"B013720","RENE M","Henry","11","Burlwouod Ct",,"pittsburg","california","94565","925-417-0743","Rene","M","Henry",,"11 Burlwouod Ct","Pittsburg","CA","94565","9254170743",,,,,5
"B065719","JUNA","H","1210","VENICE BLNVD","aptr 408","VENICE","CALIFORNIA","90291","(310)565-2733","Juna",,"H",,"1210 Venice (BLNVD Aptr 408)","Venice","CA","90291","3105652733",,,,,44
"B014315","S","BARAONA","1598","E EVERGLADE AVE",,"FRESNO","CALIF.","93720G","559-627.8164","S",,"Baraona",,"1598 E Everglade Ave","Fresno","CA","93720","5596278164",,,,,9
"B014381","C","Roy","2507","S J St",,"ROGERSARKANSAS","72758","479.708-7528",,"C",,"Roy",,"2507 S J St","Rogers","AR","72758","4797087528",,,,,12
"B066050","pearletha L","gray","4800","TIFFANY WAY",,"FAIR OAKS","CA","95628","(916)365.2385","Pearletha","L","Gray",,"4800 Tiffany Way","Fair Oaks","CA","95628","9163652385",,,,,48
"B066452","PATRICIA","tension","820","W Lincolnwy","# 82","GALT","CALIF.","95632","(209)515-4865","Patricia",,"Tension",,"820 W Lincolnwy, #82","Galt","CA","95632","2095154865",,,,,16
"B066794","Julian C","TRACY","15313","MAUNA LOA STREEDT",,"Hesperia","ca","92345","(760)173-7706","Julian","C","Tracy",,"15313 Mauna Loa Streedt","Hesperia","CA","92345","7601737706",,,,,46
"B066862","KHANTONG A","RAMIREZ","881605","POST BOX",,"LOS ANGELEHS","CA","90009","(818)438-8862","Khantong","A","Ramirez",,"PO BOX 881605","Los Angelehs","CA","90009","8184388862",,,,,14
"B015231","MARCELA","VILLA","18725","e linfield st",,"Azzusa","calif.","91702","626.551.6636","Marcela",,"Villa",,"18725 E Linfield St","Azzusa","CA","91702","6265516636",,,,,3
"B015246","ROSA","garrett","3754","Arlington Cir",,"PITTSBUZRG","CALIFORNIA","94565","925-175-4116","Rosa",,"Garrett",,"3754 Arlington Cir","Pittsbuzrg","CA","94565","9251754116",,,,,22
"B015273","Graciela A","albright","1210","VENICE BLVD","Apt 408","venice","ca","90291","310-565-2733","Graciela","A","Albright",,"1210 Venice Blvd, Apt 408","Venice","CA","90291","3105652733",,,,,43
"B015357","BRINA C","RYO","7021","WESTBURY DR",,"AMARILLO","TX","79109","806.261-7751","Brina","C","Ryo",,"7021 Westbury Dr","Amarillo","TX","79109","8062617751",,,,,12
"B015810","belen","HORTON","1577","pomeroy ave","Apt 3k03","SANTA CLARA","CALIF.","95051","408.210-3420","Belen",,"Horton",,"1577 Pomeroy Ave, Apt 3k03","Santa Clara","CA","95051","4082103420",,,,,32
"B067104","barry DUNCAN","crook","1342","w 35th st",,"LOS ANGELES","CALI","90007(818)285.5136",,"Barry","Duncan","Crook",,"1342 W 35th St","Los Angeles","CA","90007","8182855136",,,,,8
"B067246","MARECLA","villa","12840","Santa Lucia Rd",,"ATASCADERO","CA","93422","805-836-0237","Marecla",,"Villa",,"12840 Santa Lucia Rd","Atascadero","CA","93422","8058360237",,,,,3
"B067339","M P","ZUCCARELLO","602","OFFICE BOX",,"stuttgart","arkansas","72160","870.280-5778","M","P","Zuccarello",,"PO BOX 602","Stuttgart","AR","72160","8702805778",,,,,21
"B067759","MARK A","GONZALES","11494","huntington village lane",,"Gold River","ca","95670","(916)672.3078","Mark","A","Gonzales",,"11494 Huntington Village Lane","Gold River","CA","95670","9166723078",,,,,19
"B068170","corey E","WADDELL","869","SHOSHONE LANE",,"MELBOURNE","FL","32904","(321)608-3386","Corey","E","Waddell",,"869 Shoshone Lane","Melbourne","FL","32904","3216083386",,,,,40
"B016378","roslaia E","targowski","637","Alamo Ct",,"OAKDALE","CA","95361","209.145-3086","Roslaia","E","Targowski",,"637 Alamo Ct","Oakdale","CA","95361","2091453086",,,,,18
"B016487","MARCELA","Villa","18725","E LINFIELD ST",,"Azusa","california","91702","(626)551.6636","Marcela",,"Villa",,"18725 E Linfield St","Azusa","CA","91702","6265516636",,,,,3
"B016853",,"chavez","543301","BUZON",,"Grand Prairie","tx","75054","972.831.3281",,,"Chavez",,"543301 Buzon","Grand Prairie","TX","75054","9728313281",,,,,1
"B016910","MICHAEL","Daniels","2728","POST OFFICE",,"LAKELAND","FL","3386","863.755.8552","Michael",,"Daniels",,"PO BOX 2728","Lakeland","FL","3386","8637558552",,,,,10
"B068224","MARK A","GONZALES","11494","Huntingtzon Village Lane",,"GOLD RIVER","CA","95670","916-672-3078","Mark","A","Gonzales",,"11494 Huntingtzon Village Lane","Gold River","CA","95670","9166723078",,,,,19
"B068283","ralph","BAPTISTE","955","DOTTEREL RD","Apt 2306","delray beach","fla.","33444","561.672-1323","Ralph",,"Baptiste",,"955 Dotterel Rd, Apt 2306","Delray Beach","FL","33444","5616721323",,,,,31
"B068681",,"PERIEZ","18725","E Linfield St",,"AZUSA","CA","91702","(626)551.6636",,,"Periez",,"18725 E Linfield St","Azusa","CA","91702","6265516636",,,,,3
"B017085","BRYANT C","roy","43","Warren Drv","apt 139","LITTLE ROCK","AR","72209","501.615.1102","Bryant","C","Roy",,"43 Warren Dr, Apt 139","Little Rock","AR","72209","5016151102",,,,,12
"B017174","FRANCISCO L","Urbansi","10808","foothill blvd","Stej 160-166","rancho cucamonga","california","91730","909.522-1807","Francisco","L","Urbansi",,"10808 Foothill Blvd (Stej 160-166)","Rancho Cucamonga","CA","91730","9095221807",,,,,42
"B069468","janet P","GUEVARRA","494163","POST BOX",,"PORT CHARLOTTE","FL","33949","941.660.1007","Janet","P","Guevarra",,"PO BOX 494163","Port Charlotte","FL","33949","9416601007",,,,,49
"B017960","Khantong A","RAMIREZ","22150","STGG ST",,"canoga park","ca","91304","818-375.1708","Khantong","A","Ramirez",,"22150 STGG St","Canoga Park","CA","91304","8183751708",,,,,14
"B018258","martha","AMPEREZ","218","W SILVER SANDS DR",,"SAN ANTONIO","TX","78216","210-727.0638","Martha",,"Amperez",,"218 W Silver Sands Dr","San Antonio","TX","78216","2107270638",,,,,36
"B070436","RALPH","baptiste","400","VALENCIA DR","Apt 1331","maumelle","ar","72113","501.745.5175","Ralph",,"Baptiste",,"400 Valencia Dr, Apt 1331","Maumelle","AR","72113","5017455175",,,,,31
"B070608","Rosalia E","TAROGWSKI","7308","De Soto Avecnue","APT 18","canoga park","california","9303","(818)651-2130","Rosalia","E","Tarogwski",,"Avecnue Apt, 7308 de Soto (18)","Canoga Park","CA","9303","8186512130",,,,,18
"B018494","lius","Perez","742","Limestone Avnue",,"Lathrop","cali","95330","(209)180-5121","Lius",,"Perez",,"742 Limestone Ave","Lathrop","CA","95330","2091805121",,,,,4
"B071265","KHANTONG A","ARMIREZ","22150","STAGG STR",,"CANOGA PARK","CALI","91304","818-375-1708","Khantong","A","Armirez",,"22150 Stagg St","Canoga Park","CA","91304","8183751708",,,,,14
"B071624","Frank","Amperez","108","Fe Church St",,"GAINESVILLE","T","76240","940-818.1265","Frank",,"Amperez",,"108 Fe Church St","Gainesville","TX","76240","9408181265",,,,,37
"B019002","Francis","Amperez","7595","POST OFFICE",,"PORT ST LUCIE","FLORIDA","34985","407-642.6881","Francis",,"Amperez",,"PO BOX 7595","Port Saint Lucie","FL","34985","4076426881",,,,,37
"B019047","b","CHAVEZ","9247","TOBIAS AVE",,"Panorama City","ca","91402","(818)116-6458","B",,"Chavez",,"9247 Tobias Ave","Panorama City","CA","91402","8181166458",,,,,1
"B019052","RALPH","BAPTISTE","12614","Arrowhead Cir",,"LAREDO","TEXAS","78045","956.572-2473","Ralph",,"Baptiste",,"12614 Arrowhead Cir","Laredo","TX","78045","9565722473",,,,,31
"B072679","ALBERT C","Foster","20672","southwood oaks dr",,"Prter","tx","77365","(281)523.3035","Albert","C","Foster",,"20672 Southwood Oaks Dr","Prter","TX","77365","2815233035",,,,,39
"B072798","LUCY R","wilson","27096","CALLER",,"El Paso","texas","79926","915-762-6150","Lucy","R","Wilson",,"PO BOX 27096","El Paso","TX","79926","9157626150",,,,,38
"B072972","Barbaar","Myers-christian","3536","n berlinave",,"fresno","ca","93722 559-304-7567",,"Barbaar",,"Myers-Christian",,"3536 N Berlinave","Fresno","CA","93722","5593047567",,,,,1
"B073072","ROSA","garrett","1650","BROADWAY AVE","apartment o","seaside","california","93955","831.200-6802","Rosa",,"Garrett",,"1650 Broadway Ave, Apt O","Seaside","CA","93955","8312006802",,,,,22
"B019706","Juan","hoagn","2920","pocint east drv","apt nu206","AVENTURA","FL","3160","(305)621.0585","Juan",,"Hoagn",,"2920 Pocint East Dr (Apt Nu206)","Aventura","FL","3160","3056210585",,,,,44
"B074158","DAYLE A","BONSAL","3937","GIBRAILTAR AV","APARTMENT 8","ls angeles","california","90008","818-813.0288","Dayle","A","Bonsal",,"3937 Gibrailtar Ave, Apt 8","Ls Angeles","CA","90008","8188130288",,,,,15
"B020132","MARTHA","COLLINS","280911","POST OFFICE BOX",,"San Francisco","calif.","94128","415.538-1852","Martha",,"Collins",,"PO BOX 280911","San Francisco","CA","94128","4155381852",,,,,36
"B020437","M","MYERS-CHRISTIAN","2943","n cottonwood st","UNIT 3","orange","ca","92865","714.726-3554","M",,"Myers-Christian",,"2943 N Cottonwood St, Unit 3","Orange","CA","92865","7147263554",,,,,2
"B020627","D A","BONSAL","661","Salem Str","apt 10","GLENDALE","CA","91203","818-357-2076","D","A","Bonsal",,"661 Salem St, Apt 10","Glendale","CA","91203","8183572076",,,,,15
"B074545","Slavador J","CAPPS","732","BOX",,"LAKE FOREST","CA","92609","(949)144-1561","Slavador","J","Capps",,"PO Box (732)","Lake Forest","CA","92609","9491441561",,,,,34
"B074800","DOROTHY P","CAPETILLO","1257","POST",,"SARASOTA","FLORIDA","34230(941)745.1061",,"Dorothy","P","Capetillo",,"1257 Post","Sarasota","FL","34230","9417451061",,,,,25
"B020765","MICHAEL","DANIELS","1111","shawnee st",,"HOUSTON","TX","77034","713-612.8525","Michael",,"Daniels",,"1111 Shawnee St","Houston","TX","77034","7136128525",,,,,10
"B021011","Rosa","GARRETT","201","Galileo Lane",,"PERRIS","CA","92571","909-672-8186","Rosa",,"Garrett",,"201 Galileo Lane","Perris","CA","92571","9096728186",,,,,22
"B021206","Brian C","roy","7021","WESTBURY DR",,"amarillo","tx","79109","806-261.7751","Brian","C","Roy",,"7021 Westbury Dr","Amarillo","TX","79109","8062617751",,,,,12
"B075815","rene M","HENRY","11","BURLWOODCOURT",,"PITTSBURG","CA","94565","925-417-0743","Rene","M","Henry",,"11 Burlwoodcourt","Pittsburg","CA","94565","9254170743",,,,,5
"B077244","CECILIA C","Osorio","6625","17th Street S",,"Sainxt Petersburg","fla.","33712","727-676.8123","Cecilia","C","Osorio",,"6625 17th St S","Sainxt Petersburg","FL","33712","7276768123",,,,,30
"B022805","GALDYS S","Baraona","55582","APARTADO",,"HAYWARD","CA","94545","(530)334-6678","Galdys","S","Baraona",,"55582 Apartado","Hayward","CA","94545","5303346678",,,,,9
"B022956","ERNE M","Henry","11","BURLWOOD CT",,"pittsburg","california","94565","925.417.0743","Erne","M","Henry",,"11 Burlwood Ct","Pittsburg","CA","94565","9254170743",,,,,5
"B077830","CANDACE","Quiles","10808","Foothill Blvd","STE 160-166","rancho cucamonga","calif.","91s730","909-522.1807","Candace",,"Quiles",,"10808 Foothill Blvd, Ste 160 (166)","Rancho Cucamonga","CA","91730","9095221807",,,,,41
"B078066","LUCIA R","Wilson","20672","soutwhwood oaks dr",,"PORTER","TEXAS","77365","281-523.3035","Lucia","R","Wilson",,"20672 Soutwhwood Oaks Dr","Porter","TX","77365","2815233035",,,,,38
"B078536","A","Hoang","1210","VENICE BOULEVARD","APT 408","VENICE","CALIF.","90291","310.565.2733","A",,"Hoang",,"1210 Venice Blvd, Apt 408","Venice","CA","90291","3105652733",,,,,43
"B079005","DIANNE J","Turcotte","13889","DOVE CANYON WAY",,"rancho cucamonga","ca","91739","909.238.7834","Dianne","J","Turcotte",,"13889 Dove Canyon Way","Rancho Cucamonga","CA","91739","9092387834",,,,,7
"B079580","Gladys S","BARAONA","860","42d st",,"Oakland","ca","94608","530.335-6810","Gladys","S","Baraona",,"860 42D St","Oakland","CA","94608","5303356810",,,,,9
"B024185","francis","AMPEREZ","218","w silver sands dr",,"SAN ANTONIO","TX","78216","210.727.0638","Francis",,"Amperez",,"218 W Silver Sands Dr","San Antonio","TX","78216","2107270638",,,,,37
"B080567","Julian C","TARCY","681","W Retnette Ave",,"el cajon","ca","92020","619.226.2128","Julian","C","Tarcy",,"681 W Retnette Ave","El Cajon","CA","92020","6192262128",,,,,46
"B080909","Belen","LEWIS","4574","N Hazel Ave",,"fresno","ca","93722","559-828.7211","Belen",,"Lewis",,"4574 N Hazel Ave","Fresno","CA","93722","5598287211",,,,,32
"B080916","TERESITA A","VENTURA","7021","westbury driv",,"amarillo","tx","79109","(806)261-7751","Teresita","A","Ventura",,"7021 Westbury Dr","Amarillo","TX","79109","8062617751",,,,,11
"B081299","WYNNETH E","Goodwni","5765","BOX",,"TITUSVILLE","FL","32783","407.416-8414","Wynneth","E","Goodwni",,"PO Box (5765)","Titusville","FL","32783","4074168414",,,,,47
"B081317","CELIA B","OSORIO","1807","SCOTTSDALE DR",,"arlington","tx","76018","817-678.5436","Celia","B","Osorio",,"1807 Scottsdale Dr","Arlington","TX","76018","8176785436",,,,,30
"B025535","Brian C","r","43","vwarren dr","Apt 139","little rock","ar","72209","(501)615-1102","Brian","C","R",,"43 Vwarren Dr, Apt 139","Little Rock","AR","72209","5016151102",,,,,12
"B082494","CECILIA C","OSORIO","955","DOTTEREL RD","APT 2306","Delray Beach","fl","33444","561-672.1323","Cecilia","C","Osorio",,"955 Dotterel Rd, Apt 2306","Delray Beach","FL","33444","5616721323",,,,,30
"B082634","belen","LEWIS","1577","Pomeroy Ave","Apt 303","SANTA CLARA","CALIF.","95051","408.210-3420","Belen",,"Lewis",,"1577 Pomeroy Ave, Apt 303","Santa Clara","CA","95051","4082103420",,,,,32
"B026197","marcela","VILLA","333","W Garvey Aven","# B161","MONTERY PARK","CALI","91754","(626)536.6502","Marcela",,"Villa",,"333 W Garvey Ave, B161","Montery Park","CA","91754","6265366502",,,,,3
"B083528","DANK M","WAR","2747","County Road 425",,"Jonesboro","ar","72404","870-644-8000","Dank","M","War",,"2747 County Road 425","Jonesboro","AR","72404","8706448000",,,,,23
"B083949","ralph","baptiste","400","valencia dr","Apt 1331","Maumelle","arkansas","72113","(501)745.5175","Ralph",,"Baptiste",,"400 Valencia Dr, Apt 1331","Maumelle","AR","72113","5017455175",,,,,31
"B027118","CANDACE","QUILES","1894","HARTFORD ST",,"Salias","ca","93906","831.567.4004","Candace",,"Quiles",,"1894 Hartford St","Salias","CA","93906","8315674004",,,,,41
"B084072","M","Esparza","644","MCKINLEY COURT",,"KISSIMMEE","FL","34758","407-744.8606","M",,"Esparza",,"644 McKinley Ct","Kissimmee","FL","34758","4077448606",,,,,24
"B084451","CELIA B","OSORIO","1807","Scottsdale Dr",,"Arlington","texas","76018","817-678.5436","Celia","B","Osorio",,"1807 Scottsdale Dr","Arlington","TX","76018","8176785436",,,,,30
"B084923","salvador J","C","1716","BROADMOORE ST",,"LIVERMORE","CA","94551","925.483.3333","Salvador","J","C",,"1716 Broadmoore St","Livermore","CA","94551","9254833333",,,,,34
"B028082","donald","H","426","Mooreland St",,"El Paso","tx","79907","915-501-2234","Donald",,"H",,"426 Mooreland St","El Paso","TX","79907","9155012234",,,,,17
"B028257","FRANCIS","amperez","110489","BUZON",,"Carrollton","ptexas","75011","972.257-0041","Francis",,"Amperez",,"110489 Buzon","Carrollton","TX","75011","9722570041",,,,,37
"B028372","Jeff","capetillo","15632","POST",,"SAINT PETERSBURG","FLORIDA","33733","(727)102-6884","Jeff",,"Capetillo",,"15632 Post","Saint Petersburg","FL","33733","7271026884",,,,,26
"B086454","CLYDE M","myers-christian","2555","CALL BOX",,"DEOWNEY","CALIFORNIA","90242","(562)240.8084","Clyde","M","Myers-Christian",,"PO BOX 2555","Deowney","CA","90242","5622408084",,,,,2
"B028729","EARL M","HORTON","1508","SA ANTONIO AV","Apt M","Menlao Park","california","94025","650.870-4246","Earl","M","Horton",,"1508 Sa Antonio Ave, Apt M","Menlao Park","CA","94025","6508704246",,,,,33
"B086903","teresiat A","VENTURA","7037","Conejo Dr",,"SAN BERNARDINO","CALIFORNIA","9240T4","(909)217-4076","Teresiat","A","Ventura",,"7037 Conejo Dr","San Bernardino","CA","92404","9092174076",,,,,11
"B086906","EARL M","ohrton","7546","XLA PAZ BLVD",,"boca raton","fl","33433","561-707-2688","Earl","M","Ohrton",,"7546 Xla Paz Blvd","Boca Raton","FL","33433","5617072688",,,,,33
"B087620","MARK A","GONZALES","11494","HUNTINGTON VILLAGE LANE",,"Gold River","caif.","95670","(916)672.3078","Mark","A","Gonzales",,"11494 Huntington Village Lane","Gold River","CA","95670","9166723078",,,,,19
"B029510","C E","Waddell","869","SHOSHONE LN",,"Melbourne","fla.","32904","(321)608.3386","C","E","Waddell",,"869 Shoshone Ln","Melbourne","FL","32904","3216083386",,,,,40
"B029716","Marcela","VILLA","4265","NORTH CORDOBA ST",,"spring jvalley","ca","91977","(619)687.4538","Marcela",,"Villa",,"4265 N Cordoba St","Spring Jvalley","CA","91977","6196874538",,,,,3
"B088561","MELCHOR","e","644","MCKINLEYCT",,"Kissimmee","fla.","34758","407.744-8606","Melchor",,"E",,"644 McKinleyct","Kissimmee","FL","34758","4077448606",,,,,24
"B089133","MELCHOR","Esparza","6507","WINFIELD BLVD","# C108","MARGATE","FLORIDA","U33063","954-575-7114","Melchor",,"Esparza",,"6507 Winfield Blvd, C108","Margate","FL","33063","9545757114",,,,,24
"B089517","CLINTON R","Reyes","4781","Claire Dr",,"OCEANSIDE","CALIF.","92057","760.676-1570","Clinton","R","Reyes",,"4781 Claire Dr","Oceanside","CA","92057","7606761570",,,,,6
"B089891","EARL M","Horton","1855","Nw 15teh Ave","Apt 1602","MIAMI","FL","33125","305-286.6024","Earl","M","Horton",,"1855 NW 15 Teh Ave, Apt 1602","Miami","FL","33125","3052866024",,,,,33
"B090126","DONALD","Hunter","613","CAPITOL STREET","# 61","Vsallejo","ca","94590","707.600.2868","Donald",,"Hunter",,"613 Capitol St, #61","Vsallejo","CA","94590","7076002868",,,,,17
"B090194","Melchor","esparza","644","mckinley ct",,"KILSSIMMEE","FLA.","34758","407.744-8606","Melchor",,"Esparza",,"644 McKinley Ct","Kilssimmee","FL","34758","4077448606",,,,,24
"B090632","CARLO","ANDREALA","430115","CALLER",,"MIAMI","FL","33243","305-101.7216","Carlo",,"Andreala",,"PO BOX 430115","Miami","FL","33243","3051017216",,,,,20
"B091641","teresita A","ventura","228","royal coach ave",,"Pomona","acali","91767","(909)308.1583","Teresita","A","Ventura",,"228 Royal Coach Ave","Pomona","CA","91767","9093081583",,,,,11
"B091796","trixie","TENISON","820","w lincoln way","# 8","galt","ca","95632","209.515.4865","Trixie",,"Tenison",,"820 W Lincoln Way, #8","Galt","CA","95632","2095154865",,,,,16
"B092094","C R","REYES","19011","Diablo Rd",,"MADERA","CA","93638","559-351.4557","C","R","Reyes",,"19011 Diablo Rd","Madera","CA","93638","5593514557",,,,,6
"B092284","Melchor","ESPARZA","7586","CALL BOX",,"fort myers","fla.","33911","239-305-0542","Melchor",,"Esparza",,"PO BOX 7586","Fort Myers","FL","33911","2393050542",,,,,24
"B093022",,"PEREZ","742","limestone ave",,"LATHROP","CALIF.","95330","(209)180.5121",,,"Perez",,"742 Limestone Ave","Lathrop","CA","95330","2091805121",,,,,4
"B030886","LUCIA R","WILSON","503","BEAVERS ST",,"warren","ark","71671","870.544.7223","Lucia","R","Wilson",,"503 Beavers St","Warren","AR","71671","8705447223",,,,,38
"B030982",,"esparza","1102","SPRTING LITE WAY",,"Orlando","fl","32825","407-342-7004",,,"Esparza",,"1102 Sprting Lite Way","Orlando","FL","32825","4073427004",,,,,24
"B031019","MART","Collins","108","E CHURCH ST",,"Gainesville","tx","76240","(940)818.1265","Mart",,"Collins",,"108 E Church St","Gainesville","TX","76240","9408181265",,,,,36
"B093568","PATRICIA","TENIOSN","820","w lincoln way","# 8G2","ygalt","ca","95632","209-515-4865","Patricia",,"Teniosn",,"820 W Lincoln Way, 8g2","Ygalt","CA","95632","2095154865",,,,,16
"B093690","BRYANT C","ROY","43","Warren Dr","APT Z139","Little Rock","arkan","72209","501.615.1102","Bryant","C","Roy",,"43 Warren Dr, Apt Z139","Little Rock","AR","72209","5016151102",,,,,12
"B093768",,"VILLA","8242","CALLER",,"ANIAHEIM","CA","92812","714-304.7805",,,"Villa",,"PO BOX 8242","Aniaheim","CA","92812","7143047805",,,,,3
"B093808","rsoalia E","TARGOWSKI","7308","DE SOTO AVE","APT18","canogya park","calif.","91303","818-651.2130","Rsoalia","E","Targowski",,"7308 de Soto Ave, Apt 18","Canogya Park","CA","91303","8186512130",,,,,18
"B094374","rosa","garrett","3754","arlington cir",,"PITTSBURG","CA","94565","925-175.4116","Rosa",,"Garrett",,"3754 Arlington Cir","Pittsburg","CA","94565","9251754116",,,,,22
"B094767","Barby","CHAVEZ","11881","GULF POINTE DR","Apt E38","HOUSTON","TX","77089","(713)165.7474","Barby",,"Chavez",,"11881 Gulf Pointe Dr, Apt E38","Houston","TX","77089","7131657474",,,,,1
"B095203","JANET P","guevarra","2706","18TH ST W",,"Lehigh Acres","fla.","33971","(239)608-5388","Janet","P","Guevarra",,"2706 18th St W","Lehigh Acres","FL","33971","2396085388",,,,,49
"B095918","LCINTON R","REYES","4781","CLAIRE DR",,"OCEANIDE","CA","92057","760-676-1570","Lcinton","R","Reyes",,"4781 Claire Dr","Oceanide","CA","92057","7606761570",,,,,6
"B096221","Rosa","GARRETT","201","Galileo Ln",,"perris","ca","92571","909.672-8186","Rosa",,"Garrett",,"201 Galileo Ln","Perris","CA","92571","9096728186",,,,,22
"B096238","luis","perez","4265","n cordoba st",,"SPRING VALLEY","CA","91977","619.155-5285","Luis",,"Perez",,"4265 N Cordoba St","Spring Valley","CA","91977","6191555285",,,,,4
"B031993","albert C","Foster","27096","POST",,"EL PASO","TX","79926","915.762.6150","Albert","C","Foster",,"27096 Post","El Paso","TX","79926","9157626150",,,,,39
"B097018","Elvia J","ayala","11120","COLLEGE AVENU",,"montclair","ca","9163","909-731-4838","Elvia","J","Ayala",,"11120 College Ave","Montclair","CA","9163","9097314838",,,,,28
"B097095","R","REYES","41","FEEMONT TURN",,"palm coast","fla.l","32137","(386)284.7387","R",,"Reyes",,"41 Feemont Turn","Palm Coast","FL","32137","3862847387",,,,,6
"B097488","J P","Guevarra","7041","CALLER",,"ALHAMBRA","CA","91802","626-544-4372","J","P","Guevarra",,"PO BOX 7041","Alhambra","CA","91802","6265444372",,,,,49
"B097743","Everardo J","NAVARRO","710","N GENESEE AVE","OAPT 4","LOS ANGELES","CA","90046","818-363-5745","Everardo","J","Navarro",,"710 N Genesee Ave (Oapt 4)","Los Angeles","CA","90046","8183635745",,,,,35
"B032640","luis","PEEZ","4265","n cordoba st",,"Spring Valley","ca","91977","619.155-5285","Luis",,"Peez",,"4265 N Cordoba St","Spring Valley","CA","91977","6191555285",,,,,4
"B032790","patricia","TENISON","4338","agne avn",,"LYNWOOD","CALIF.","90262","(310)506-8474","Patricia",,"Tenison",,"4338 Agne Ave","Lynwood","CA","90262","3105068474",,,,,16
"B099063","JUAN","Hoang","2920","point east dr","apt n206","AVENTURA","FLORIDA","33160","305-621.0585","Juan",,"Hoang",,"2920 Point East Dr, Apt N206","Aventura","FL","33160","3056210585",,,,,44
"B099224","Clyde M","MYERS-CHRISTIAN","1841","Michigan Stjrt",,"COLTON","CBA","92324","909-533.4037","Clyde","M","Myers-Christian",,"1841 Michigan STJRT","Colton","CA","92324","9095334037",,,,,2
"B099524","ALBERT C","FOSTER","20672","southwood oaks dr",,"porter","tx","77365","281-523.3035","Albert","C","Foster",,"20672 Southwood Oaks Dr","Porter","TX","77365","2815233035",,,,,39
"B099534","R E","TARGOWSKI","582052","POST OFFICE BOX",,"MODESTO","CA","95358","209-584-5507","R","E","Targowski",,"PO BOX 582052","Modesto","CA","95358","2095845507",,,,,18
"B033360","ROSALIA E","Targowsik","637","Alamo Clt",,"OAKDALE","CA","95361","209-145.3086","Rosalia","E","Targowsik",,"637 Alamo CLT","Oakdale","CA","95361","2091453086",,,,,18
"B033463","PEARLETHA L","GRYA","208","Bellingham Ct",,"Lincoln","oca","95648","916.545.1364","Pearletha","L","Grya",,"208 Bellingham Ct","Lincoln","CA","95648","9165451364",,,,,48
"B100709","Barbie","Chavze","11881","GULF POINTE DRIVE","APT E38","Houston","texays","77089","713.165-7474","Barbie",,"Chavze",,"11881 Gulf Pointe Dr, Apt E38","Houston","TX","77089","7131657474",,,,,1
"B034022","DOROTHY P","Blankeship","1257","APARTADO",,"Sarasota","fl","34230","941-187.5002","Dorothy","P","Blankeship",,"1257 Apartado","Sarasota","FL","34230","9411875002",,,,,25
"B034478","BARBARA","CHAVEZ","11881","SGULF POINTE DRIVE","Apt E38","Houston","tx","77089","(713)165.7474","Barbara",,"Chavez",,"11881 Sgulf Pointe Dr, Apt E38","Houston","TX","77089","7131657474",,,,,1
"B035021","I","Oliver","165891","APTDO",,"Little Rock","ark.","72216","(501)432.2332","I",,"Oliver",,"165891 Aptdo","Little Rock","AR","72216","5014322332",,,,,27
"B035084","LUCIA R","oster","20672","SOUHWOOD OAKS DR",,"Porter","tx","77365","281-523.3035","Lucia","R","Oster",,"20672 Souhwood Oaks Dr","Porter","TX","77365","2815233035",,,,,38
"B035722","FRANCISCO L","URBANSKI","821","e 116th pl",,"LODS ANGELES","CALIF.","90059","(818)160-2131","Francisco","L","Urbanski",,"821 E 116th Pl","Lods Angeles","CA","90059","8181602131",,,,,42
"B036258","Dorothy P","Capetillo","5335","48th ave n",,"SAINT PETERSBURG","FLA.","33709","(727)102-6884","Dorothy","P","Capetillo",,"5335 48th Ave N","Saint Petersburg","FL","33709","7271026884",,,,,25
"B037746","Mark A","GONZAELS","1900","Post Rd","APT 195","MEBOURNE","FL","32935","321-255.7178","Mark","A","Gonzaels",,"1900 Post Rd, Apt 195","Mebourne","FL","32935","3212557178",,,,,19
"B038818","elvia J","AYALA","1010","Palm Desert Dr",,"Garland","texas","75044","(972)570.4030","Elvia","J","Ayala",,"1010 Palm Desert Dr","Garland","TX","75044","9725704030",,,,,28
"B038839","Ralph","Baptiste","955","Dotterel Rd","apartmfent 2306","DELRAY BEACH","FL","3P3444","(561)672.1323","Ralph",,"Baptiste",,"955 Dotterel Rd (Apartmfent 2306)","Delray Beach","FL","33444","5616721323",,,,,31
"B039024","Rosalia E","TARGOWSKI","637","aamo ct",,"OADALE","CA","95361","(209)145-3086","Rosalia","E","Targowski",,"637 Aamo Ct","Oadale","CA","95361","2091453086",,,,,18
"B039067","R","foster","20672","SOUTHWOOD OAKS DR",,"PORTER","TX","77365","281-523-3035","R",,"Foster",,"20672 Southwood Oaks Dr","Porter","TX","77365","2815233035",,,,,38
"B039120","graciela A","ALBRIGHT","2512","dartmouth court",,"BEDFORD","TX","76022","817-360-4064","Graciela","A","Albright",,"2512 Dartmouth Ct","Bedford","TX","76022","8173604064",,,,,43
"B040607","Donald","Hunter","613","Capito St","# 613","Vallejo","ca","94590","(707)600.2868","Donald",,"Hunter",,"613 Capito St, #613","Vallejo","CA","94590","7076002868",,,,,17
"B040679","martha","COLLINS","108","E Chrch Strt",,"Gainesville","tx","76240","940.818.1265","Martha",,"Collins",,"108 E CHRCH St","Gainesville","TX","76240","9408181265",,,,,36
"B041151","luis","PEREZ","4265","N CORDOBA ST",,"spring valley","ca","91977v","619-155.5285","Luis",,"Perez",,"4265 N Cordoba St","Spring Valley","CA","91977","6191555285",,,,,4
"B041189","PEARLETHA L","GAY","740","broadway","AT 53","San Francisco","cali","94133","415.807.7426","Pearletha","L","Gay",,"740 Broadway At, #53","San Francisco","CA","94133","4158077426",,,,,48
"B042042","Pearletha L","GRAY","740","Broadway","APT 53","san francisco","ca","94133","415.807-7426","Pearletha","L","Gray",,"740 Broadway, Apt 53","San Francisco","CA","94133","4158077426",,,,,48
"B042237","Teresita A","Ventura","27096","BOX",,"EL PASOTX","79926","(915)854-8761",,"Teresita","A","Ventura",,"PO Box (27096)","El Paso","TX","79926","9158548761",,,,,11
"B042778","ALBERT C","FOTSER","280034","OFFICE BOX",,"houston","texas","77228","713.315-1667","Albert","C","Fotser",,"PO BOX 280034","Houston","TX","77228","7133151667",,,,,39
"B042846","jesus A","Downs","2706","18th st w",,"Lehigh Acres","fl","33971","(239)608-5388","Jesus","A","Downs",,"2706 18th St W","Lehigh Acres","FL","33971","2396085388",,,,,50
"B042931","FRANCIS","Amperez","108","E CHURCH STREET",,"gaineville","tx","76240","940.818-1265","Francis",,"Amperez",,"108 E Church St","Gaineville","TX","76240","9408181265",,,,,37
"B043002","E J","AYALA","3203","San Medina Ayve",,"Dallas","tx","75228","(214)701.3356","E","J","Ayala",,"3203 San Medina Ayve","Dallas","TX","75228","2147013356",,,,,28
"B043300","ROSA","GARRETT","401","WALKER ST",,"arvin","ca","9h3203","661-455.1784","Rosa",,"Garrett",,"401 Walker St","Arvin","CA","93203","6614551784",,,,,22
"B043549","j A","DOWNS","2706","18TH ST W",,"LEHIGH ACRES","FL","33971","239.608.5388","J","A","Downs",,"2706 18th St W","Lehigh Acres","FL","33971","2396085388",,,,,50
"B044097","elvia J","APYALA","1010","Palm Deset Driv",,"GARLAND","TEXAS","75044","(972)570.4030","Elvia","J","Apyala",,"1010 Palm Deset Dr","Garland","TX","75044","9725704030",,,,,28
"B044179","MELCHOR","Esparza","6507","Winfield Boulevard","# C108","Margate","fla.","33063","(954)575.7114","Melchor",,"Esparza",,"6507 Winfield Blvd, C108","Margate","FL","33063","9545757114",,,,,24
"B044946","MARTHA","COLLINS","3937","LUKE LN",,"Carrollton","texas","75007","(972)257-0041","Martha",,"Collins",,"3937 Luke Ln","Carrollton","TX","75007","9722570041",,,,,36
"B045242","CANDACE","quiles","1475","west 46th strt","APT 522","hialeah","fl","33012","(305)471-7123","Candace",,"Quiles",,"1475 W 46th St, Apt 522","Hialeah","FL","33012","3054717123",,,,,41
"B045672","FRANCISCO L","urbanski","10808","Foothill Blvd","Ste 16-166","RANCHO CUCAMONGA","CALIF.","91730","909-522-1807","Francisco","L","Urbanski",,"10808 Foothill Blvd, Ste 16 (166)","Rancho Cucamonga","CA","91730","9095221807",,,,,42
"B046392","michael","daniels","1513","BUZON",,"sebring","fla.","33871","863-574.1607","Michael",,"Daniels",,"1513 Buzon","Sebring","FL","33871","8635741607",,,,,10
"B047002","CLINTON R","REYES","19011","DIABLO RD",,"Madera","ca","93638","(559)351.4557","Clinton","R","Reyes",,"19011 Diablo Rd","Madera","CA","93638","5593514557",,,,,6
"B047390","E J","ayala","11120","College Ave",,"montclair","calfornia","91763","909.731-4838","E","J","Ayala",,"11120 College Ave","Montclair","CA","91763","9097314838",,,,,28
"B049357","E J","AYALA","1010","PALM DESERT DRIVE",,"GARLAND","TX","75044","(972)570-4030","E","J","Ayala",,"1010 Palm Desert Dr","Garland","TX","75044","9725704030",,,,,28
"B049752","C","OSORIO","38125","TIMBERLANE DR",,"UMATILLA","FLA.","32784","352-144.4463","C",,"Osorio",,"38125 Timberlane Dr","Umatilla","FL","32784","3521444463",,,,,30
"B050302","bryant C","Roy","27096","BOX",,"El Paso","texas","79926","915-854.8761","Bryant","C","Roy",,"PO Box (27096)","El Paso","TX","79926","9158548761",,,,,12
"B050414","T A","VENTURA","14955","Agvenida Venusto","UNIT 3","SAN DIEGO","CALI","92128","(619)482.7116","T","A","Ventura",,"Unit 3 (14955 Agvenida Venusto)","San Diego","CA","92128","6194827116",,,,,11
